[gd_scene load_steps=2 format=2]

[ext_resource path="res://scenes/view/CellView.tscn" type="PackedScene" id=1]

[node name="BoxView" type="GridContainer"]
margin_right = 40.0
margin_bottom = 40.0
custom_constants/vseparation = -1
custom_constants/hseparation = -1
columns = 3

[node name="Cell0" parent="." instance=ExtResource( 1 )]
margin_left = 0.0
margin_top = 0.0
margin_right = 40.0
margin_bottom = 40.0

[node name="Cell1" parent="." instance=ExtResource( 1 )]
margin_left = 39.0
margin_top = 0.0
margin_right = 79.0
margin_bottom = 40.0

[node name="Cell2" parent="." instance=ExtResource( 1 )]
margin_left = 78.0
margin_top = 0.0
margin_right = 118.0
margin_bottom = 40.0

[node name="Cell3" parent="." instance=ExtResource( 1 )]
margin_left = 0.0
margin_top = 39.0
margin_right = 40.0
margin_bottom = 79.0

[node name="Cell4" parent="." instance=ExtResource( 1 )]
margin_left = 39.0
margin_top = 39.0
margin_right = 79.0
margin_bottom = 79.0

[node name="Cell5" parent="." instance=ExtResource( 1 )]
margin_left = 78.0
margin_top = 39.0
margin_right = 118.0
margin_bottom = 79.0

[node name="Cell6" parent="." instance=ExtResource( 1 )]
margin_left = 0.0
margin_top = 78.0
margin_right = 40.0
margin_bottom = 118.0

[node name="Cell7" parent="." instance=ExtResource( 1 )]
margin_left = 39.0
margin_top = 78.0
margin_right = 79.0
margin_bottom = 118.0

[node name="Cell8" parent="." instance=ExtResource( 1 )]
margin_left = 78.0
margin_top = 78.0
margin_right = 118.0
margin_bottom = 118.0

