[gd_scene load_steps=4 format=2]

[ext_resource path="res://resources/WhiteTheme.tres" type="Theme" id=1]
[ext_resource path="res://resources/icons/redo.png" type="Texture" id=2]
[ext_resource path="res://scripts/control/UndoRedoButton.gd" type="Script" id=3]


[node name="RedoButton" type="Button"]
margin_right = 56.0
margin_bottom = 56.0
rect_min_size = Vector2( 32, 32 )
theme = ExtResource( 1 )
icon = ExtResource( 2 )
script = ExtResource( 3 )
change = 1

