[gd_scene load_steps=4 format=2]

[ext_resource path="res://resources/WhiteTheme.tres" type="Theme" id=1]
[ext_resource path="res://resources/icons/toolPencil.png" type="Texture" id=2]
[ext_resource path="res://scripts/control/ToolModeButton.gd" type="Script" id=3]

[node name="ToolButton" type="Button"]
margin_right = 12.0
margin_bottom = 20.0
theme = ExtResource( 1 )
toggle_mode = true
icon = ExtResource( 2 )
script = ExtResource( 3 )

