[gd_scene load_steps=4 format=2]

[ext_resource path="res://scripts/control/UndoRedoBar.gd" type="Script" id=1]
[ext_resource path="res://scenes/control/UndoButton.tscn" type="PackedScene" id=2]
[ext_resource path="res://scenes/control/RedoButton.tscn" type="PackedScene" id=3]

[node name="UndoRedoBar" type="CenterContainer"]
anchor_right = 1.0
anchor_bottom = 1.0
script = ExtResource( 1 )

[node name="HBoxContainer" type="HBoxContainer" parent="."]
margin_left = 129.0
margin_top = 378.0
margin_right = 245.0
margin_bottom = 434.0

[node name="UndoButton" parent="HBoxContainer" instance=ExtResource( 2 )]
margin_right = 56.0
margin_bottom = 56.0

[node name="RedoButton" parent="HBoxContainer" instance=ExtResource( 3 )]
margin_left = 60.0
margin_right = 116.0

